tests/wave.vcd
$date
	Sat May 24 17:11:00 2025
$end
$version
	Icarus Verilog
$end
$timescale
	1ps
$end
$scope module test $end
$var wire 1 ! RST_N $end
$var wire 3 " read_address [2:0] $end
$var wire 1 # read_en $end
$var wire 1 $ read_rdy $end
$var wire 3 % write_address [2:0] $end
$var wire 1 & write_data $end
$var wire 1 ' write_en $end
$var wire 1 ( write_rdy $end
$var wire 1 ) read_data $end
$var reg 1 * CLK $end
$scope module dut_test $end
$var wire 1 * CLK $end
$var wire 1 ! RST_N $end
$var wire 1 + \a_data$whas $end
$var wire 1 , \a_ff$CLR $end
$var wire 1 - \a_ff$DEQ $end
$var wire 1 . \a_ff$D_IN $end
$var wire 1 / \a_ff$ENQ $end
$var wire 1 0 \b_data$whas $end
$var wire 1 1 \b_ff$CLR $end
$var wire 1 2 \b_ff$DEQ $end
$var wire 1 3 \b_ff$D_IN $end
$var wire 1 4 \b_ff$ENQ $end
$var wire 1 5 \pwyff_deq$whas $end
$var wire 3 6 read_address [2:0] $end
$var wire 1 # read_en $end
$var wire 1 $ read_rdy $end
$var wire 3 7 write_address [2:0] $end
$var wire 1 & write_data $end
$var wire 1 ' write_en $end
$var wire 1 ( write_rdy $end
$var wire 1 8 \y_ff$CLR $end
$var wire 1 9 \y_ff$DEQ $end
$var wire 1 : \y_ff$D_IN $end
$var wire 1 ; \y_ff$ENQ $end
$var wire 1 < \y_ff$FULL_N $end
$var wire 1 = \y_ff$EMPTY_N $end
$var wire 1 > \y_ff$D_OUT $end
$var wire 1 ? \b_ff$FULL_N $end
$var wire 1 @ \b_ff$EMPTY_N $end
$var wire 1 A \b_ff$D_OUT $end
$var wire 1 B \a_ff$FULL_N $end
$var wire 1 C \a_ff$EMPTY_N $end
$var wire 1 D \a_ff$D_OUT $end
$var reg 1 ) read_data $end
$scope module a_ff $end
$var wire 1 * CLK $end
$var wire 1 , CLR $end
$var wire 1 - DEQ $end
$var wire 1 . D_IN $end
$var wire 1 C EMPTY_N $end
$var wire 1 / ENQ $end
$var wire 1 B FULL_N $end
$var wire 1 ! RST $end
$var wire 1 E d0d1 $end
$var wire 1 F d0di $end
$var wire 1 G d0h $end
$var wire 1 H d1di $end
$var wire 1 D D_OUT $end
$var parameter 1 I guarded $end
$var parameter 32 J width $end
$var reg 1 D data0_reg $end
$var reg 1 K data1_reg $end
$var reg 1 L empty_reg $end
$var reg 1 M full_reg $end
$scope begin error_checks $end
$var reg 1 N deqerror $end
$var reg 1 O enqerror $end
$upscope $end
$upscope $end
$scope module b_ff $end
$var wire 1 * CLK $end
$var wire 1 1 CLR $end
$var wire 1 2 DEQ $end
$var wire 1 3 D_IN $end
$var wire 1 @ EMPTY_N $end
$var wire 1 4 ENQ $end
$var wire 1 ! RST $end
$var wire 1 ? FULL_N $end
$var parameter 1 P guarded $end
$var parameter 32 Q width $end
$var reg 1 A D_OUT $end
$var reg 1 R empty_reg $end
$scope begin error_checks $end
$var reg 1 S deqerror $end
$var reg 1 T enqerror $end
$upscope $end
$upscope $end
$scope module y_ff $end
$var wire 1 * CLK $end
$var wire 1 8 CLR $end
$var wire 1 9 DEQ $end
$var wire 1 : D_IN $end
$var wire 1 > D_OUT $end
$var wire 1 = EMPTY_N $end
$var wire 1 ; ENQ $end
$var wire 1 < FULL_N $end
$var wire 1 ! RST $end
$var wire 1 U d0d1 $end
$var wire 1 V d0di $end
$var wire 1 W d0h $end
$var wire 1 X d1di $end
$var parameter 1 Y guarded $end
$var parameter 32 Z width $end
$var reg 1 [ data0_reg $end
$var reg 1 \ data1_reg $end
$var reg 1 ] empty_reg $end
$var reg 1 ^ full_reg $end
$scope begin error_checks $end
$var reg 1 _ deqerror $end
$var reg 1 ` enqerror $end
$upscope $end
$upscope $end
$upscope $end
$upscope $end
$enddefinitions $end
$comment Show the parameter values. $end
$dumpall
b1 Z
1Y
b1 Q
1P
b1 J
1I
$end
#0
$dumpvars
x`
x_
1^
0]
0\
0[
0X
1W
0V
0U
xT
xS
0R
xO
xN
1M
0L
0K
0H
1G
0F
0E
0D
0C
1B
0A
0@
1?
0>
0=
1<
0;
0:
09
08
bz 7
bz 6
05
04
z3
02
01
00
0/
z.
0-
0,
0+
0*
0)
1(
0'
z&
bz %
1$
0#
bz "
1!
$end
#5000
0`
0_
0T
0S
0O
0N
1*
#10000
0*
#15000
1*
#20000
0!
0*
#25000
1*
#30000
0*
#35000
1*
#40000
0*
#45000
15
b11 "
b11 6
1#
1!
1*
#50000
0*
#55000
1*
#60000
05
b10 "
b10 6
0*
#65000
14
10
0.
03
0&
b101 %
b101 7
1'
1*
#70000
1)
b1 "
b1 6
0*
#75000
0)
04
0?
1@
1R
1*
#80000
1)
00
b0 "
b0 6
0'
0*
#85000
1*
#90000
0)
b10 "
b10 6
0*
#95000
1*
#100000
b1 "
b1 6
0*
#105000
1*
#110000
15
b11 "
b11 6
0*
#115000
1*
#120000
1)
05
b0 "
b0 6
0*
#125000
1*
#130000
0*
#135000
1*
#140000
0)
b1 "
b1 6
0*
#145000
1*
#150000
15
b11 "
b11 6
0*
#155000
1*
#160000
1)
05
b0 "
b0 6
0*
#165000
1*
#170000
0)
b10 "
b10 6
0*
#175000
0G
1F
1/
1+
1.
13
1&
b100 %
b100 7
1'
1*
#180000
b1 "
b1 6
0*
#185000
0W
1V
0G
1F
1;
12
1-
1H
1:
1C
1L
1D
1*
#190000
0F
1G
0H
0/
1)
0+
b0 "
b0 6
0'
0*
#195000
1W
0V
0;
02
0-
1>
1[
1=
1]
1?
0@
0R
0C
0L
1*
#200000
0*
#205000
1*
#210000
0*
#215000
1*
#220000
19
15
b11 "
b11 6
0*
#225000
14
10
b101 %
b101 7
1'
0)
09
0=
0]
1*
#230000
05
b10 "
b10 6
0*
#235000
04
1A
0?
1@
1R
1*
#240000
00
b1 "
b1 6
0'
0*
#245000
1*
#250000
0*
#255000
1*
#260000
b10 "
b10 6
0*
#265000
1*
#270000
1)
b0 "
b0 6
0*
#275000
1*
#280000
0)
b10 "
b10 6
0*
#285000
1*
#290000
b1 "
b1 6
0*
#295000
1*
#300000
1)
b0 "
b0 6
0*
#305000
1*
#310000
0)
15
b11 "
b11 6
0*
#315000
1*
#320000
05
b10 "
b10 6
0*
#325000
1*
#330000
1)
b0 "
b0 6
0*
#335000
1*
#340000
0)
b1 "
b1 6
0*
#345000
1*
#350000
15
b11 "
b11 6
0*
#355000
1*
#360000
1)
05
b0 "
b0 6
0*
#365000
0G
1F
1/
1+
0.
03
0&
b100 %
b100 7
1'
1*
#370000
0)
b1 "
b1 6
0*
#375000
0W
1V
0G
1F
1;
12
1-
1H
0D
1C
1L
1*
#380000
0F
1G
0H
0/
0+
b10 "
b10 6
0'
0*
#385000
1W
0V
0;
02
0-
0X
1)
0C
0L
1?
0@
0R
1=
1]
1*
#390000
b0 "
b0 6
0*
#395000
1*
#400000
b1 "
b1 6
0*
#405000
1*
#410000
b0 "
b0 6
0*
#415000
1*
#420000
19
15
b11 "
b11 6
0*
#425000
0)
09
0=
0]
1*
#430000
05
b10 "
b10 6
0*
#435000
1*
#440000
1)
b0 "
b0 6
0*
#445000
1*
#450000
b1 "
b1 6
0*
#455000
1*
#460000
0*
#465000
1*
#470000
0)
15
b11 "
b11 6
0*
#475000
1*
#480000
0*
#485000
1*
#490000
0*
#495000
0G
1F
1/
1+
1'
1*
#500000
05
b10 "
b10 6
0*
#505000
1G
0F
1H
1C
1L
1*
#510000
0H
0/
1)
0+
b1 "
b1 6
0'
0*
#515000
1*
#520000
0*
#525000
1*
#530000
0)
b10 "
b10 6
0*
#535000
1*
#540000
0*
#545000
1*
#550000
0*
#555000
1*
#560000
1)
b0 "
b0 6
0*
#565000
1*
#570000
b1 "
b1 6
0*
#575000
1*
#580000
0*
#585000
1*
#590000
0)
b10 "
b10 6
0*
#595000
1*
#600000
1)
b0 "
b0 6
0*
#605000
1*
#610000
b1 "
b1 6
0*
#615000
1*
#620000
b0 "
b0 6
0*
#625000
1*
#630000
0)
15
b11 "
b11 6
0*
#635000
1*
#640000
05
b10 "
b10 6
0*
#645000
1*
#650000
1)
b0 "
b0 6
0*
#655000
14
10
b101 %
b101 7
1'
1*
#660000
0*
#665000
0W
1V
04
1;
12
1-
0:
0?
1@
1R
0A
1*
#670000
00
0'
0*
#675000
1W
0V
0;
02
0-
0>
0[
1=
1]
1?
0@
0R
0C
0L
1*
#680000
19
0)
15
b11 "
b11 6
0*
#685000
09
0=
0]
1*
#690000
0*
#695000
1*
#700000
1)
05
b0 "
b0 6
0*
#705000
1*
#710000
0*
#715000
1*
#720000
b1 "
b1 6
0*
#725000
1*
#730000
0*
#735000
1*
#740000
b0 "
b0 6
0*
#745000
1*
#750000
0)
b10 "
b10 6
0*
#755000
1*
#760000
0*
#765000
1*
#770000
1)
b0 "
b0 6
0*
#775000
1*
#780000
0)
15
b11 "
b11 6
0*
#785000
1*
#790000
1)
05
b1 "
b1 6
0*
#795000
1*
#800000
0)
b10 "
b10 6
0*
#805000
1*
#810000
1)
b1 "
b1 6
0*
#815000
1*
#820000
0)
15
b11 "
b11 6
0*
#825000
14
10
1.
13
1&
1'
1*
#830000
05
b10 "
b10 6
0*
#835000
1:
04
1A
0?
1@
1R
1*
#840000
1)
00
b0 "
b0 6
0'
0*
#845000
10
0.
03
0&
1'
1*
#850000
0)
b1 "
b1 6
0*
#855000
1*
#860000
1)
00
b0 "
b0 6
0'
0*
#865000
1*
#870000
0)
b10 "
b10 6
0*
#875000
1*
#880000
1)
b0 "
b0 6
0*
#885000
1*
#890000
0)
b10 "
b10 6
0*
#895000
1*
#900000
15
b11 "
b11 6
0*
#905000
1*
#910000
0*
#915000
1*
#920000
0*
#925000
1*
#930000
0*
#935000
1*
#940000
1)
05
b0 "
b0 6
0*
#945000
1*
#950000
0)
b10 "
b10 6
0*
#955000
1*
#960000
0*
#965000
1*
#970000
1)
b0 "
b0 6
0*
#975000
1*
#980000
0)
b1 "
b1 6
0*
#985000
1*
#990000
0*
#995000
10
1'
1*
#1000000
1)
b0 "
b0 6
0*
#1005000
1*
#1010000
0)
00
b10 "
b10 6
0'
0*
#1015000
1*
#1020000
15
b11 "
b11 6
0*
#1025000
1*
#1030000
05
b10 "
b10 6
0*
