tests/wave.vcd
$date
	Sat May 24 17:14:00 2025
$end
$version
	Icarus Verilog
$end
$timescale
	1ps
$end
$scope module test $end
$var wire 1 ! RST_N $end
$var wire 3 " read_address [2:0] $end
$var wire 1 # read_en $end
$var wire 1 $ read_rdy $end
$var wire 3 % write_address [2:0] $end
$var wire 1 & write_data $end
$var wire 1 ' write_en $end
$var wire 1 ( write_rdy $end
$var wire 1 ) read_data $end
$var reg 1 * CLK $end
$scope module dut_test $end
$var wire 1 * CLK $end
$var wire 1 ! RST_N $end
$var wire 1 + \a_data$whas $end
$var wire 1 , \a_ff$CLR $end
$var wire 1 - \a_ff$DEQ $end
$var wire 1 . \a_ff$D_IN $end
$var wire 1 / \a_ff$ENQ $end
$var wire 1 0 \b_data$whas $end
$var wire 1 1 \b_ff$CLR $end
$var wire 1 2 \b_ff$DEQ $end
$var wire 1 3 \b_ff$D_IN $end
$var wire 1 4 \b_ff$ENQ $end
$var wire 1 5 \pwyff_deq$whas $end
$var wire 3 6 read_address [2:0] $end
$var wire 1 # read_en $end
$var wire 1 $ read_rdy $end
$var wire 3 7 write_address [2:0] $end
$var wire 1 & write_data $end
$var wire 1 ' write_en $end
$var wire 1 ( write_rdy $end
$var wire 1 8 \y_ff$CLR $end
$var wire 1 9 \y_ff$DEQ $end
$var wire 1 : \y_ff$D_IN $end
$var wire 1 ; \y_ff$ENQ $end
$var wire 1 < \y_ff$FULL_N $end
$var wire 1 = \y_ff$EMPTY_N $end
$var wire 1 > \y_ff$D_OUT $end
$var wire 1 ? \b_ff$FULL_N $end
$var wire 1 @ \b_ff$EMPTY_N $end
$var wire 1 A \b_ff$D_OUT $end
$var wire 1 B \a_ff$FULL_N $end
$var wire 1 C \a_ff$EMPTY_N $end
$var wire 1 D \a_ff$D_OUT $end
$var reg 1 ) read_data $end
$scope module a_ff $end
$var wire 1 * CLK $end
$var wire 1 , CLR $end
$var wire 1 - DEQ $end
$var wire 1 . D_IN $end
$var wire 1 C EMPTY_N $end
$var wire 1 / ENQ $end
$var wire 1 B FULL_N $end
$var wire 1 ! RST $end
$var wire 1 E d0d1 $end
$var wire 1 F d0di $end
$var wire 1 G d0h $end
$var wire 1 H d1di $end
$var wire 1 D D_OUT $end
$var parameter 1 I guarded $end
$var parameter 32 J width $end
$var reg 1 D data0_reg $end
$var reg 1 K data1_reg $end
$var reg 1 L empty_reg $end
$var reg 1 M full_reg $end
$scope begin error_checks $end
$var reg 1 N deqerror $end
$var reg 1 O enqerror $end
$upscope $end
$upscope $end
$scope module b_ff $end
$var wire 1 * CLK $end
$var wire 1 1 CLR $end
$var wire 1 2 DEQ $end
$var wire 1 3 D_IN $end
$var wire 1 @ EMPTY_N $end
$var wire 1 4 ENQ $end
$var wire 1 ! RST $end
$var wire 1 ? FULL_N $end
$var parameter 1 P guarded $end
$var parameter 32 Q width $end
$var reg 1 A D_OUT $end
$var reg 1 R empty_reg $end
$scope begin error_checks $end
$var reg 1 S deqerror $end
$var reg 1 T enqerror $end
$upscope $end
$upscope $end
$scope module y_ff $end
$var wire 1 * CLK $end
$var wire 1 8 CLR $end
$var wire 1 9 DEQ $end
$var wire 1 : D_IN $end
$var wire 1 > D_OUT $end
$var wire 1 = EMPTY_N $end
$var wire 1 ; ENQ $end
$var wire 1 < FULL_N $end
$var wire 1 ! RST $end
$var wire 1 U d0d1 $end
$var wire 1 V d0di $end
$var wire 1 W d0h $end
$var wire 1 X d1di $end
$var parameter 1 Y guarded $end
$var parameter 32 Z width $end
$var reg 1 [ data0_reg $end
$var reg 1 \ data1_reg $end
$var reg 1 ] empty_reg $end
$var reg 1 ^ full_reg $end
$scope begin error_checks $end
$var reg 1 _ deqerror $end
$var reg 1 ` enqerror $end
$upscope $end
$upscope $end
$upscope $end
$upscope $end
$enddefinitions $end
$comment Show the parameter values. $end
$dumpall
b1 Z
1Y
b1 Q
1P
b1 J
1I
$end
#0
$dumpvars
x`
x_
1^
0]
0\
0[
0X
1W
0V
0U
xT
xS
0R
xO
xN
1M
0L
0K
0H
1G
0F
0E
0D
0C
1B
0A
0@
1?
0>
0=
1<
0;
0:
09
08
bz 7
bz 6
05
04
z3
02
01
00
0/
z.
0-
0,
0+
0*
0)
1(
0'
z&
bz %
1$
0#
bz "
1!
$end
#5000
0`
0_
0T
0S
0O
0N
1*
#10000
0*
#15000
1*
#20000
0!
0*
#25000
1*
#30000
0*
#35000
1*
#40000
0*
#45000
0G
1F
1/
1+
b10 "
b10 6
1#
0.
03
0&
b100 %
b100 7
1'
1!
1*
#50000
0*
#55000
1G
0F
1H
1C
1L
1*
#60000
1)
b0 "
b0 6
0*
#65000
0H
0)
0/
0B
0M
1*
#70000
14
0+
10
1.
13
1&
b101 %
b101 7
0*
#75000
0W
0G
1V
1E
1:
04
1;
12
1-
1A
0?
1@
1R
1*
#80000
15
1+
00
b11 "
b11 6
0.
03
0&
b100 %
b100 7
0*
#85000
1G
1W
1H
0V
0E
1/
0;
02
0-
0X
19
1)
1B
1M
1?
0@
0R
1=
1]
1>
1[
1*
#90000
0H
09
0/
14
05
0+
10
b0 "
b0 6
b101 %
b101 7
0*
#95000
1X
0:
04
1;
12
1-
0A
0?
1@
1R
1*
#100000
1F
0G
1H
1/
1+
00
1.
13
1&
b100 %
b100 7
0*
#105000
0F
1G
0X
1:
0;
02
0-
1K
1D
1?
0@
0R
0<
0^
1*
#110000
0W
1U
19
15
b11 "
b11 6
0*
#115000
1W
0H
0U
0)
0/
0>
0[
1<
1^
0B
0M
1*
#120000
09
14
1)
05
0+
10
b10 "
b10 6
b101 %
b101 7
0*
#125000
0G
1X
1E
04
1;
12
1-
0?
1@
1R
1A
1*
#130000
0)
b0 "
b0 6
0.
03
0&
0*
#135000
0X
1G
14
0;
02
0-
0E
1)
1\
0<
0^
1?
0@
0R
1B
1M
1*
#140000
b10 "
b10 6
0*
#145000
04
0?
1@
1R
0A
1*
#150000
1H
1/
1+
00
b0 "
b0 6
b100 %
b100 7
0*
#155000
0H
0)
0/
0K
0B
0M
1*
#160000
0+
10
1.
13
1&
b101 %
b101 7
0*
#165000
1*
#170000
1)
b10 "
b10 6
0*
#175000
1*
#180000
0W
1U
19
0)
15
b11 "
b11 6
0.
03
0&
0*
#185000
1V
0G
1X
1E
0W
1;
12
1-
0U
1)
1<
1^
1>
1[
1*
#190000
0*
#195000
0V
1W
0X
1G
14
0;
02
0-
0:
0E
1?
0@
0R
0D
1B
1M
1*
#200000
1H
09
1/
04
05
1+
00
b0 "
b0 6
1.
13
1&
b100 %
b100 7
0*
#205000
0H
0)
0/
0B
0M
1K
1*
#210000
1)
b1 "
b1 6
0*
#215000
1*
#220000
0*
#225000
1*
#230000
19
15
b11 "
b11 6
0*
#235000
0)
09
0=
0]
1*
#240000
14
05
0+
10
b0 "
b0 6
b101 %
b101 7
0*
#245000
0W
0G
1V
1E
04
1;
12
1-
1:
0?
1@
1R
1A
1*
#250000
b10 "
b10 6
0*
#255000
1W
0V
1G
14
0;
02
0-
0E
1)
1=
1]
1?
0@
0R
1D
1B
1M
1*
#260000
b1 "
b1 6
0.
03
0&
0*
#265000
1X
0)
04
1;
12
1-
0?
1@
1R
0A
1*
#270000
1)
b0 "
b0 6
1.
13
1&
0*
#275000
0X
14
0;
02
0-
0<
0^
1?
0@
0R
0C
0L
1*
#280000
0W
1U
19
15
b11 "
b11 6
0*
#285000
1W
04
0U
0?
1@
1R
1A
1<
1^
1*
#290000
0G
1F
09
1/
05
1+
00
b10 "
b10 6
b100 %
b100 7
0*
#295000
0G
1X
1F
1;
12
1-
1H
1C
1L
1*
#300000
0F
1G
0H
0/
0+
10
b0 "
b0 6
b101 %
b101 7
0*
#305000
0X
14
0;
02
0-
0C
0L
1?
0@
0R
0<
0^
1*
#310000
b10 "
b10 6
0.
03
0&
0*
#315000
04
0A
0?
1@
1R
1*
#320000
b0 "
b0 6
0*
#325000
1*
#330000
0)
b1 "
b1 6
1.
13
1&
0*
#335000
1*
#340000
0G
1F
1/
1+
00
b100 %
b100 7
0*
#345000
1G
0F
1H
1C
1L
1*
#350000
0H
0/
0+
10
b101 %
b101 7
0*
#355000
1*
#360000
0W
1U
1H
19
1/
1)
15
1+
00
b11 "
b11 6
0.
03
0&
b100 %
b100 7
0*
#365000
1V
0G
1X
1E
0H
0W
1;
12
1-
0/
0U
0B
0M
0K
1<
1^
1*
#370000
0V
1W
09
0)
05
b0 "
b0 6
0*
#375000
1G
0X
1H
0;
02
0-
0:
0E
1)
1/
0<
0^
1?
0@
0R
0D
1B
1M
1*
#380000
b10 "
b10 6
0*
#385000
0H
0/
0B
0M
1*
#390000
b1 "
b1 6
0*
#395000
1*
#400000
0W
1U
19
14
15
0+
10
b11 "
b11 6
1.
13
1&
b101 %
b101 7
0*
#405000
1V
0G
1X
1E
0W
04
1;
12
1-
1:
0U
0?
1@
1R
1A
1<
1^
1*
#410000
0V
1W
09
0)
05
1+
00
b0 "
b0 6
b100 %
b100 7
0*
#415000
1G
0X
1H
0;
02
0-
0E
1)
1/
0<
0^
1?
0@
0R
1B
1M
1*
#420000
0W
1U
19
15
b11 "
b11 6
0.
03
0&
0*
#425000
0H
1W
0/
0U
0B
0M
1<
1^
1*
#430000
09
05
b10 "
b10 6
0*
#435000
1*
#440000
1.
13
1&
0*
#445000
1*
#450000
19
14
15
0+
10
b11 "
b11 6
0.
03
0&
b101 %
b101 7
0*
#455000
0G
0W
1V
1E
09
0:
0)
04
1;
12
1-
0=
0]
0A
0?
1@
1R
1*
#460000
05
b10 "
b10 6
1.
13
1&
0*
#465000
1W
1G
0V
0E
14
0;
02
0-
0X
1)
1B
1M
1?
0@
0R
1=
1]
0>
0[
1*
#470000
b1 "
b1 6
0.
03
0&
0*
#475000
1X
0)
04
1;
12
1-
0?
1@
1R
1*
#480000
1V
0W
19
15
b11 "
b11 6
0*
#485000
0V
1W
0X
14
0;
02
0-
0C
0L
1?
0@
0R
0\
1*
#490000
09
1)
05
b0 "
b0 6
0*
#495000
04
0?
1@
1R
1*
#500000
0G
1F
1/
1+
00
1.
13
1&
b100 %
b100 7
0*
#505000
0G
1X
1F
1;
12
1-
1H
1:
1C
1L
1D
1*
#510000
0.
03
0&
0*
#515000
0F
1G
0X
0;
02
0-
0:
1\
0<
0^
1?
0@
0R
0D
1*
#520000
b10 "
b10 6
1.
13
1&
0*
#525000
0H
0/
0B
0M
1K
1*
#530000
0W
1U
19
0)
15
b11 "
b11 6
0*
#535000
1W
1)
0U
1>
1[
1<
1^
1*
#540000
09
05
b1 "
b1 6
0*
#545000
1*
#550000
14
0)
0+
10
b0 "
b0 6
b101 %
b101 7
0*
#555000
0G
1X
1E
1:
04
1;
12
1-
1A
0?
1@
1R
1*
#560000
1V
0W
19
1)
15
b11 "
b11 6
0.
03
0&
0*
#565000
0V
1W
1G
0X
0E
14
0;
02
0-
1B
1M
1D
1?
0@
0R
1*
#570000
1H
09
1/
04
05
1+
00
b1 "
b1 6
b100 %
b100 7
0*
#575000
0H
0/
0K
0B
0M
1*
#580000
b10 "
b10 6
1.
13
1&
0*
#585000
1*
#590000
b1 "
b1 6
0*
#595000
1*
#600000
19
15
b11 "
b11 6
0*
#605000
0)
09
0=
0]
1*
#610000
14
05
0+
10
b10 "
b10 6
0.
03
0&
b101 %
b101 7
0*
#615000
0W
0G
1V
1E
04
1;
12
1-
0A
0?
1@
1R
1*
#620000
15
b11 "
b11 6
0*
#625000
1W
1G
0V
0E
0:
14
0;
02
0-
0X
1)
19
1B
1M
0D
1?
0@
0R
1=
1]
1*
#630000
1H
1/
04
1+
00
1.
13
1&
b100 %
b100 7
0*
#635000
0H
09
0)
0/
0=
0]
1K
0B
0M
1*
#640000
05
b0 "
b0 6
0.
03
0&
0*
#645000
1*
#650000
15
b11 "
b11 6
1.
13
1&
0*
#655000
1*
#660000
1)
05
b1 "
b1 6
0*
#665000
1*
#670000
0)
b10 "
b10 6
0*
#675000
1*
#680000
14
0+
10
b0 "
b0 6
b101 %
b101 7
0*
#685000
0W
0G
1V
1E
04
1;
12
1-
1:
0?
1@
1R
1A
1*
#690000
15
b11 "
b11 6
0.
03
0&
0*
#695000
1W
0V
1G
19
14
0;
02
0-
0E
1)
1=
1]
1?
0@
0R
1D
1B
1M
1*
#700000
1H
1/
04
1+
00
b100 %
b100 7
0*
#705000
0H
0/
0)
09
0B
0M
0K
0=
0]
1*
#710000
1)
05
b1 "
b1 6
1.
13
1&
0*
#715000
1*
#720000
0)
15
b11 "
b11 6
0*
#725000
1*
#730000
14
05
0+
10
b10 "
b10 6
b101 %
b101 7
0*
#735000
0W
0G
1V
1E
04
1;
12
1-
0?
1@
1R
1*
#740000
1+
00
b100 %
b100 7
0*
#745000
1G
1W
1H
0V
0E
1/
0;
02
0-
0X
1)
1B
1M
0D
1?
0@
0R
1=
1]
1*
#750000
0H
0/
14
0+
10
b1 "
b1 6
0.
03
0&
b101 %
b101 7
0*
#755000
1X
0:
0)
04
1;
12
1-
0A
0?
1@
1R
1*
#760000
1V
0W
1F
0G
1H
19
1/
1)
15
1+
00
b11 "
b11 6
b100 %
b100 7
0*
#765000
0V
0F
1G
1W
0X
0;
02
0-
0)
1?
0@
0R
0\
0>
0[
1*
#770000
0*
#775000
0H
09
0/
0=
0]
0B
0M
1*
#780000
05
b0 "
b0 6
1.
13
1&
0*
#785000
1*
#790000
14
0+
10
b10 "
b10 6
b101 %
b101 7
0*
#795000
0W
0G
1V
1E
1:
04
1;
12
1-
1A
0?
1@
1R
1*
#800000
1+
00
b0 "
b0 6
0.
03
0&
b100 %
b100 7
0*
#805000
1G
1W
1H
0V
0E
1/
0;
02
0-
0X
1)
1B
1M
1?
0@
0R
1=
1]
1>
1[
1*
#810000
0H
0/
14
0+
10
b10 "
b10 6
b101 %
b101 7
0*
#815000
1X
0:
04
1;
12
1-
0A
0?
1@
1R
1*
#820000
1V
0W
19
15
b11 "
b11 6
0*
#825000
0V
1W
0X
14
0;
02
0-
0)
0C
0L
1?
0@
0R
0>
0[
1*
#830000
0G
1F
09
1/
04
1)
05
1+
00
b0 "
b0 6
1.
13
1&
b100 %
b100 7
0*
#835000
1G
0F
1:
1H
1D
1C
1L
1*
#840000
0H
0/
14
0+
10
b1 "
b1 6
0.
03
0&
b101 %
b101 7
0*
#845000
1X
0)
04
1;
12
1-
0?
1@
1R
1*
#850000
1F
0G
1H
1/
1)
1+
00
b10 "
b10 6
b100 %
b100 7
0*
#855000
0F
1G
0X
0;
02
0-
0:
1\
0<
0^
1?
0@
0R
0D
1*
#860000
0H
0/
14
0+
10
1.
13
1&
b101 %
b101 7
0*
#865000
04
1:
0?
1@
1R
1A
1*
#870000
0.
03
0&
0*
#875000
1*
#880000
1H
1/
0)
1+
00
b1 "
b1 6
b100 %
b100 7
0*
#885000
0H
0/
0B
0M
1*
#890000
1)
0+
10
b10 "
b10 6
b101 %
b101 7
0*
#895000
1*
#900000
0)
1+
00
b1 "
b1 6
1.
13
1&
b100 %
b100 7
0*
#905000
1*
#910000
0+
10
b101 %
b101 7
0*
#915000
1*
#920000
1+
00
b0 "
b0 6
b100 %
b100 7
0*
#925000
1*
#930000
b1 "
b1 6
0*
#935000
1*
#940000
0.
03
0&
0*
#945000
1*
#950000
0+
10
b101 %
b101 7
0*
#955000
1*
#960000
0W
1U
19
15
b11 "
b11 6
1.
13
1&
0*
#965000
1V
0G
1X
1E
0W
1;
12
1-
0U
1)
1<
1^
1>
1[
1*
#970000
1+
00
b100 %
b100 7
0*
#975000
0V
1G
1W
0X
1H
0;
02
0-
0E
1/
1?
0@
0R
1B
1M
1*
#980000
09
05
b10 "
b10 6
0.
03
0&
0*
#985000
0H
0/
0B
0M
1*
#990000
b1 "
b1 6
0*
#995000
1*
#1000000
14
0)
0+
10
b0 "
b0 6
1.
13
1&
b101 %
b101 7
0*
#1005000
0G
1X
1E
04
1;
12
1-
0?
1@
1R
1*
#1010000
1)
b10 "
b10 6
0.
03
0&
0*
#1015000
0X
1G
14
0;
02
0-
0E
0<
0^
1?
0@
0R
1B
1M
1*
#1020000
0W
1U
19
15
b11 "
b11 6
1.
13
1&
0*
#1025000
1V
1X
0W
04
1;
12
1-
0U
0?
1@
1R
1<
1^
1*
#1030000
0V
1W
09
05
b10 "
b10 6
0.
03
0&
0*
#1035000
0X
14
0;
02
0-
0<
0^
1?
0@
0R
0C
0L
1*
#1040000
0*
#1045000
04
0:
0?
1@
1R
0A
1*
